Optional tutorial: applying MOFA to integrate multi-omics data from the BeatAML study
…
geneTab <- read_tsv("processed/gene_mutation_table.tsv")

Rows: 4138 Columns: 3
── Column specification ────────────────────────────────────────────────────────
Delimiter: "\t"
chr (2): lab_id, gene
dbl (1): value

ℹ Use `spec()` to retrieve the full column specification for this data.
ℹ Specify the column types or set `show_col_types = FALSE` to quiet this message.

geneTab 

# A tibble: 4,138 × 3
   lab_id       gene     value
   <chr>        <chr>    <dbl>
 1 AML_09_00705 FLT3.ITD     1
 2 AML_09_00705 NPM1         1
 3 AML_09_00705 FLT3         0
 4 AML_09_00705 JAK2         0
 5 AML_09_00705 KIT          0
 6 AML_10_00136 FLT3.ITD     1
 7 AML_10_00136 NPM1         0
 8 AML_10_00136 CEBPA        0
 9 AML_10_00172 FLT3.ITD     1
10 AML_10_00172 NPM1         0
# … with 4,128 more rows
# ℹ Use `print(n = ...)` to see more rows
…
